of,17
NEW,16
's,14
(,14
),13
New,9
and,8
Jordan,8
Pirelli,8
Ruch,8
Chicago,8
Washington,7
The,7
Petofi,7
Magna,7
King,7
96,6
Deportivo,6
Hong,6
Arbil,6
U.S.,6
Reynard,6
El,5
Jones,5
Mercantile,5
in,5
Boatmen,5
Collins,5
the,4
France,4
Duran,4
Bernardin,4
Comelf,4
Beograd,4
Al,4
World,4
Titanic,4
NationsBank,4
"""",4
',4
IRA,4
Mercedes-Benz,4
North,4
Queen,3
for,3
Black,3
Vinson,3
Farrakhan,3
division,3
EOE,3
1997,3
Cardinal,3
Nyerere,3
Atalanta,3
Detroit,3
PANAMA,3
Eurodollars,3
Nagorno-Karabakh,3
B,3
Philippine,3
League,3
Greater,3
Eagles,3
Texas,3
Thatcher,3
de,3
Ericsson,3
Joubert,3
Henke,3
Wall,3
MILWAUKEE,3
Zycie,3
War,3
Federal,3
Real,3
I,3
Missouri,3
al-Aqsa,3
St.,2
Tanjug,2
Scots,2
Michael,2
Tajik,2
Sleeping,2
Commerce,2
Brown,2
Rochester,2
TROFEJ,2
Falls,2
FTO,2
CHISINAU,2
TOURNAMENT,2
FIFA,2
Puig,2
Controversial,2
Montreal,2
GREATER,2
South,2
Carl,2
C-4,2
GDRs,2
FOMC,2
Enterprise,2
Motel,2
Lilac,2
Lola,2
Series,2
Parnevik,2
Tianjin,2
WBA,2
Kansas,2
Hizbollah,2
All,2
Holy,2
Ouedec,2
Alba,2
Air,2
Afrikaners,2
Johnson,2
Jeans,2
Jansher,2
Open,2
Zeleznik,2
Deer,2
A,2
Dow,2
1998,2
Inverness,2
Interstate,2
"1,000",2
1,2
International,2
movement,2
.,2
Northern,2
Am,2
Warszawy,2
Panamanian,2
Armenians,2
Coruna,2
NLD,2
Torino,2
NOUAKCHOTT,2
BEOGRAD,2
Philadelphia,2
Nablus,2
Automakers,2
Penske,2
National,2
Under-21,2
Russian,2
Napoleon,2
Armenian,2
Panama,2
KeyCorp,2
Pan,2
Apic,2
Dries,1
Emperor,1
EDMONTON,1
EUROBONDS,1
ESCHEN,1
EDWARDS,1
East,1
Eurodollar,1
Donne,1
Espanyol,1
ERA,1
Duke,1
Eugene,1
Drazek,1
Driefontein,1
Edward,1
Estes,1
Emon,1
Gaddafi,1
Ex-Yankee,1
HMGT,1
Hebrew,1
Harry,1
Hangzhou,1
Hands,1
Hampshire,1
Hachette,1
HILLS,1
Hegg,1
HILL,1
HENKE,1
HAVANA,1
HAGUE,1
Gulf,1
Guatemala,1
Hector,1
Hole,1
Group,1
INCE,1
In,1
ISDN,1
IPO,1
INTERNATIONAL,1
INDYCAR,1
INDONESIA,1
IN,1
Honda,1
II,1
IDLC,1
Hussein,1
Hove,1
Honiball,1
Honduras,1
Guangzhou,1
Groningen,1
Exchange,1
Family-controlled,1
Foreign,1
Football,1
Fla.,1
First,1
Festival,1
Far,1
FTSE,1
Frankie,1
FOOTBALL-RANDALL,1
FAROES,1
FARMINGTON,1
F-15,1
F-14,1
Eyles,1
France-registered,1
Freedom,1
Green,1
German,1
Granma,1
Goverment,1
Gold,1
Gloucester,1
Global,1
Given,1
Geraghty,1
Fruit,1
Gazzetta,1
Gascoigne,1
GRONINGEN,1
GONZALEZ,1
GASCOIGNE,1
Fullback,1
Djorkaeff,1
Coloureds,1
Disputes,1
BREEDERS,1
BIRMINGHAM,1
BERLIN,1
BELFAST,1
BARATELLI,1
BAKU,1
Azeris,1
Aw,1
Attendancce,1
Athey,1
Athetlics,1
Arrive,1
Arctic,1
Aravinda,1
Arabia,1
Arab,1
BLACK,1
BSE,1
Anglicans,1
Back,1
Berlin,1
Bergamo-based,1
Benard,1
Bear,1
Bath,1
Batajnica,1
Barzani,1
Barvikha,1
Barcelona,1
Baratelli,1
Bank,1
Bangladesh,1
Baines,1
Bag,1
Baden,1
Anne,1
Angeles,1
Dietmar,1
ATALANTA,1
AND,1
ALL,1
AK-47s,1
A.J.P.,1
A-18,1
95,1
90,1
80,1
5,1
4,1
1993,1
166,1
103,1
/,1
",",1
ASHES,1
AXE,1
Amphibious,1
Act,1
Amnesty,1
Amateur,1
Aluminium,1
Alsace,1
Alone,1
All-England,1
Alex,1
Albright,1
Alania,1
Al-Akhbar,1
Aki,1
Agriculture,1
Afrikaans,1
African,1
Aerodrom,1
Bertillon,1
Birmingham,1
Blair,1
County,1
Council,1
Cotti,1
Copper,1
Controls,1
Company,1
Comex,1
Indosuez,1
Colorado,1
Cofinec,1
Clintons,1
Cincinnati,1
China,1
Chester-le-Street,1
Chemical,1
Chechen,1
Counties,1
Course,1
Bodman,1
Cross,1
Der,1
Depositary,1
Department,1
Deliveries,1
Debates,1
Days,1
Data,1
Daniels,1
DWYER,1
DURAN,1
DSE,1
DETROIT,1
DEFENDS,1
D.,1
Cunningham,1
Chartered,1
Casa,1
Carolina,1
Cambodian,1
British-ruled,1
British,1
Brisk,1
Brent,1
Breisach,1
Breeders,1
Brazilian-born,1
Boxing-Bruno,1
Boston-based,1
Boston,1
Borodino,1
Bonds,1
Bolivia,1
Bolesy,1
Boland,1
Broker,1
Bros,1
Buckled,1
COMELF,1
Camacho,1
Cables,1
CUNNINGHAM,1
CRUDE,1
CORUNA,1
CONCACAF,1
CNBC,1
Bulgaria,1
CINCINNATI,1
CFDT,1
CARDIFF,1
Buyoya,1
Burj,1
Bund,1
India,1
tour,1
IndyCar,1
Stakes,1
T-bills,1
Suu,1
Surrey,1
Sunday,1
Sun,1
Strasbourg,1
Stamper,1
Stadium,1
Sletten,1
Springbok,1
Spitzbergen,1
Spiegel,1
SpA,1
Southeast,1
Soul,1
Somerset,1
T-bonds,1
T3,1
TARANGO,1
TATTERSALLS,1
Transvaal,1
Trades,1
Traders,1
Tour,1
Tong,1
Timor,1
Time,1
Thmei,1
Test,1
Telegraph,1
Tavildara,1
Tarawa,1
Tanjung,1
TOUR,1
THE,1
Society,1
Sihanouk,1
RIGA,1
Republican,1
SKR,1
SHEARER,1
SANTIAGO,1
Romanian,1
Rising,1
Return,1
Restoration,1
Republic,1
Sheriat,1
Red,1
Receipts,1
Recber,1
Reagan,1
Randall,1
Rally,1
Rad,1
ST,1
ST.,1
STANDARD,1
STIRLING,1
Shells,1
Sharqiyah,1
Shamir,1
Services,1
Sereipheap,1
Seattle,1
Scottish,1
Schroder,1
Schindler,1
Sarajevo,1
Saracens,1
Santiago,1
Sant,1
Sale,1
Safety,1
Transylvanian,1
Treasuries,1
Treaty,1
Yunnan,1
al-Islamiya,1
al-Gama'a,1
al-Daih,1
al-Akhdar,1
al-Abidine,1
aid-U.N.,1
a,1
York,1
Tripoli,1
Yonhap,1
Yitzak,1
Year,1
Yamada,1
YEREVAN,1
Xinhua,1
Wuxi,1
al-Laqlaq,1
al-Ram,1
al-Saadani,1
asset-St,1
symposium,1
pre-Castro,1
post-Games,1
policy-makers,1
pakistan,1
on,1
ministry,1
mainly-Moslem,1
league,1
interior,1
hosts,1
flight,1
ex-Milan,1
ex-England,1
dello,1
Wuhan,1
Woods,1
Women,1
VOLGOGRAD,1
VANCOUVER,1
Uzi,1
Universities,1
United,1
Underwriter,1
UWP-Hachette,1
U.,1
Tyson,1
Turn,1
Turkish-operated,1
Turin,1
Tunisia,1
Tunbridge,1
Tse-Tung,1
Tripoli-based,1
VENICE,1
Vancouver,1
Woman,1
Venice,1
Win,1
Whitewater,1
West,1
Welsh,1
Wasps,1
Warsaw,1
Warner,1
Wallaby,1
Wahono,1
WOODS,1
WIGAN,1
Voters,1
Volunteers,1
Volgograd,1
Venter,1
ROBERTO,1
REPUBLIKA,1
Intelligence,1
Lay,1
Liberty,1
Liberal,1
Leo,1
Lentini,1
Leicester,1
Leeson,1
Lebanon,1
Lawrence,1
LOS,1
Law,1
Latina,1
Lamps,1
Lakes,1
Lady,1
Labour,1
LYNAGH,1
Libya,1
Libyans,1
Liege,1
Lieutenant-Colonel,1
Macho,1
MONTE,1
MINSK,1
MI,1
MEDIA,1
MATIF,1
M3,1
M1,1
Lynagh,1
Lukashenko,1
Louis-based,1
Louis,1
Lotte,1
Little,1
List,1
LOWERS,1
LME,1
REAL,1
J.J.,1
Jebel,1
Jasper,1
January,1
Jan,1
Jamil,1
Jacquet,1
Jackson,1
Israel,1
LIEGE,1
Islamic,1
Islam,1
Iron,1
Irish,1
Ireland-born,1
Interstates,1
Intelligent,1
Jr,1
KDP-controlled,1
KENNY,1
KNP,1
LENTINI,1
LEICESTER,1
LA,1
Kraft,1
Kosevo,1
Koosman,1
Kong,1
Knot,1
Kids,1
Kia,1
Kehl,1
Kecskemet,1
Karlsruhe,1
Karbacher,1
Kansai,1
Mahala,1
Major,1
Major-General,1
Ontario-based,1
PMI,1
PIBOR,1
PARNEVIK,1
PAINFUL,1
Orrell,1
Orleans,1
Order,1
One,1
Mamatuyev,1
Onarheim,1
On,1
Olmo,1
Ohio-based,1
Obviously,1
Oakland,1
OPEN,1
Pacific,1
Palestinian,1
Pentagon,1
Petersburg,1
RANGERS,1
Qalandia,1
Purchasing,1
Protocol,1
Proleter,1
Professional,1
Pro-Moscow,1
Pro,1
Prince,1
Price,1
Presidential,1
Prensa,1
Posad,1
Phillip,1
Pharmaceuticals,1
OIC,1
O'BRIEN,1
Norwich,1
Moribund,1
Mo.-based,1
Minor,1
Minnesota,1
Milwaukee,1
Million,1
Milan,1
Meeting,1
Mediterranean,1
Medical,1
McGwire,1
Markham,1
Marion,1
Marines,1
March,1
Mao,1
Moody,1
My,1
Northeastern,1
NAPM,1
Nickel,1
Network,1
Netherlands,1
Nato,1
Nations,1
Nationalist,1
Naroff,1
Narino,1
Naples,1
Name,1
NYC,1
NICE,1
NFL,1
NATIONAL,1
NASEEM,1
Korean,1
